[
    {
        "id": "4f587d5331756376",
        "type": "tab",
        "label": "Flow 1",
        "disabled": false,
        "info": "",
        "env": []
    },
    {
        "id": "2e57579ef3e227d5",
        "type": "mqtt in",
        "z": "4f587d5331756376",
        "name": "T°C / HR% / CO2ppm",
        "topic": "v3/myiaq-2022@ttn/devices/htcc-ab01-43a26db3222f/up",
        "qos": "2",
        "datatype": "json",
        "broker": "576a03712ae06527",
        "nl": false,
        "rap": true,
        "rh": 0,
        "inputs": 0,
        "x": 120,
        "y": 40,
        "wires": [
            [
                "562d26ad87697b85",
                "36fd96b727614736",
                "ef7cbb66106e6542",
                "8f46f0f9731b1a8d"
            ]
        ]
    },
    {
        "id": "562d26ad87697b85",
        "type": "debug",
        "z": "4f587d5331756376",
        "name": "",
        "active": true,
        "tosidebar": true,
        "console": false,
        "tostatus": false,
        "complete": "payload",
        "targetType": "msg",
        "statusVal": "",
        "statusType": "auto",
        "x": 530,
        "y": 40,
        "wires": []
    },
    {
        "id": "0563218d51302edb",
        "type": "ui_gauge",
        "z": "4f587d5331756376",
        "name": "",
        "group": "9fde906b59b67bdb",
        "order": 0,
        "width": 0,
        "height": 0,
        "gtype": "donut",
        "title": "",
        "label": "°C",
        "format": "{{value}}",
        "min": 0,
        "max": "51.2",
        "colors": [
            "#00b500",
            "#e6e600",
            "#ca3838"
        ],
        "seg1": "27",
        "seg2": "35",
        "className": "",
        "x": 510,
        "y": 100,
        "wires": []
    },
    {
        "id": "36fd96b727614736",
        "type": "function",
        "z": "4f587d5331756376",
        "name": "F=Temp",
        "func": "\nmsg.payload = msg.payload.uplink_message.decoded_payload.temperature;\nreturn msg;",
        "outputs": 1,
        "noerr": 0,
        "initialize": "",
        "finalize": "",
        "libs": [],
        "x": 340,
        "y": 100,
        "wires": [
            [
                "0563218d51302edb"
            ]
        ]
    },
    {
        "id": "ef7cbb66106e6542",
        "type": "function",
        "z": "4f587d5331756376",
        "name": "F=Hum",
        "func": "msg.payload = msg.payload.uplink_message.decoded_payload.humidite;\nreturn msg;",
        "outputs": 1,
        "noerr": 0,
        "initialize": "",
        "finalize": "",
        "libs": [],
        "x": 340,
        "y": 160,
        "wires": [
            [
                "cb6a45d4e5175a84"
            ]
        ]
    },
    {
        "id": "8f46f0f9731b1a8d",
        "type": "function",
        "z": "4f587d5331756376",
        "name": "F=CO2",
        "func": "msg.payload = msg.payload.uplink_message.decoded_payload.co2;\nreturn msg;",
        "outputs": 1,
        "noerr": 0,
        "initialize": "",
        "finalize": "",
        "libs": [],
        "x": 340,
        "y": 220,
        "wires": [
            [
                "8100f8fadb622db8"
            ]
        ]
    },
    {
        "id": "cb6a45d4e5175a84",
        "type": "ui_gauge",
        "z": "4f587d5331756376",
        "name": "",
        "group": "fb2b5c4ff831b94e",
        "order": 0,
        "width": 0,
        "height": 0,
        "gtype": "donut",
        "title": "",
        "label": "%",
        "format": "{{value}}",
        "min": 0,
        "max": "100",
        "colors": [
            "#00b500",
            "#e6e600",
            "#ca3838"
        ],
        "seg1": "35",
        "seg2": "70",
        "className": "",
        "x": 510,
        "y": 160,
        "wires": []
    },
    {
        "id": "8100f8fadb622db8",
        "type": "ui_gauge",
        "z": "4f587d5331756376",
        "name": "",
        "group": "fd2121bc404b8b3f",
        "order": 0,
        "width": 0,
        "height": 0,
        "gtype": "donut",
        "title": "",
        "label": "PPM",
        "format": "{{value}}",
        "min": 0,
        "max": "5000",
        "colors": [
            "#00b500",
            "#e6e600",
            "#ca3838"
        ],
        "seg1": "1000",
        "seg2": "2000",
        "className": "",
        "x": 510,
        "y": 220,
        "wires": []
    },
    {
        "id": "576a03712ae06527",
        "type": "mqtt-broker",
        "name": "TTN - MyIAQ 2022",
        "broker": "eu1.cloud.thethings.network",
        "port": "1883",
        "clientid": "",
        "autoConnect": true,
        "usetls": false,
        "protocolVersion": "4",
        "keepalive": "60",
        "cleansession": true,
        "birthTopic": "",
        "birthQos": "0",
        "birthPayload": "",
        "birthMsg": {},
        "closeTopic": "",
        "closeQos": "0",
        "closePayload": "",
        "closeMsg": {},
        "willTopic": "",
        "willQos": "0",
        "willPayload": "",
        "willMsg": {},
        "sessionExpiry": ""
    },
    {
        "id": "9fde906b59b67bdb",
        "type": "ui_group",
        "name": "Température",
        "tab": "2d9d5c2d55a7ef45",
        "order": 1,
        "disp": true,
        "width": "6",
        "collapse": false,
        "className": ""
    },
    {
        "id": "fb2b5c4ff831b94e",
        "type": "ui_group",
        "name": "Humidité",
        "tab": "2d9d5c2d55a7ef45",
        "order": 2,
        "disp": true,
        "width": "6",
        "collapse": false,
        "className": ""
    },
    {
        "id": "fd2121bc404b8b3f",
        "type": "ui_group",
        "name": "CO2",
        "tab": "2d9d5c2d55a7ef45",
        "order": 3,
        "disp": true,
        "width": "6",
        "collapse": false,
        "className": ""
    },
    {
        "id": "2d9d5c2d55a7ef45",
        "type": "ui_tab",
        "name": "Home",
        "icon": "dashboard",
        "disabled": false,
        "hidden": false
    }
]