{
  "subscribeTopics" : [ {
    "name" : "MyIAQ/sensors",
    "color" : "#B3E6E6"
  } ],
  "publishTopics" : [ {
    "name" : "MyIAQ/sensors"
  }, {
    "name" : "MyIAQ/sensors"
  } ],
  "clipboardMessages" : [ {
    "name" : "myiaq-data-01",
    "topic" : {
      "name" : "MyIAQ/sensors"
    },
    "payload" : "{\"T\": {\"val\":19.7, \"unit\": \"degC\"}, \"HR\": {\"val\":24.9, \"unit\": \"%\"},\"CO2\": {\"val\":395.75, \"unit\": \"ppm\"},\"LUX\": {\"val\":978.25, \"unit\": \"lux\"}}",
    "retained" : false,
    "qos" : 0
  }, {
    "name" : "myiaq-data-02",
    "topic" : {
      "name" : "MyIAQ/sensors"
    },
    "payload" : "{\"T\": {\"val\":23.1, \"unit\": \"degC\"}, \"HR\": {\"val\":42.35, \"unit\": \"%\"},\"CO2\": {\"val\":423.5, \"unit\": \"ppm\"},\"LUX\": {\"val\":512.75, \"unit\": \"lux\"}}",
    "retained" : false,
    "qos" : 0
  } ]
}