{
  "connectionProfiles" : [ {
    "recentSubscriptionTopics" : [ ],
    "recentPublishTopics" : [ ],
    "preDefinedMessages" : [ ],
    "brokerAddress" : "eu1.cloud.thethings.network",
    "brokerPort" : "1883",
    "lastPublishTopic" : null,
    "lastSubscriptionTopic" : null,
    "profileName" : "TTN -MyIAQ2022",
    "profileType" : "MQTT_BROKER",
    "scriptsPath" : "",
    "connectionOptions" : {
      "clientId" : "paho1714700211191200",
      "connectionTimeout" : 30,
      "keepAliveInterval" : 60,
      "mqttVersionUseDefault" : true,
      "mqttVersion" : "3.1.1",
      "cleanSession" : true,
      "automaticReconnect" : false,
      "maxInflight" : 10,
      "userName" : "myiaq-2022@ttn",
      "password" : "NNSXS.2ZG3UADMOUHIULR7FM4TWZ5FMJ3V2Z7PAIZR5TQ.ECAPONRWIRUHOLIWORA26KMDV2F377P33R7RYPBZKUUEKHNCAWAQ",
      "lwtQos" : 0,
      "lwtRetained" : false,
      "lastWillDestination" : "",
      "testament" : "",
      "useProxy" : false,
      "useHttpsProxy" : false,
      "httpsProxyHost" : "",
      "httpsProxyPort" : "",
      "httpProxyHost" : "",
      "httpProxyPort" : "",
      "httpProxyUser" : "",
      "httpProxyPassword" : "",
      "httpProxyHeaderUserAgent" : "defaultClient",
      "enableSSLTLS" : false,
      "sslTlsProtocol" : "TLSv1.2",
      "certificateFilesPemFormat" : false,
      "selfCreatedCaFile" : "",
      "caFile" : "",
      "clientCertificateFile" : "",
      "clientKeyFile" : "",
      "clientKeyPassword" : "",
      "useSelfCreatedCA" : false,
      "useServerSignedCertificate" : false,
      "useTrustedKeystoreFile" : false,
      "useCertificateFiles" : false,
      "useKeystoreFiles" : false,
      "clientKeystoreFilesPemFormat" : false,
      "trustedKeystoreOnlyFile" : "",
      "trustedKeystoreOnlyPassword" : "",
      "trustedKeystoreFile" : "",
      "trustedKeystoreAlias" : "",
      "trustedKeystorePassword" : "",
      "clientKeystoreFile" : "",
      "clientKeystorePassword" : "",
      "clientKeyPairAlias" : "",
      "clientKeyPairPassword" : ""
    },
    "notificatonsEnabled" : false,
    "showLastestMessagesOnly" : false,
    "lastSelectedPayloadDecoderId" : "plain_text_decoder",
    "googleCloudIotOptions" : {
      "projectId" : "ENTER-YOUR-IOT-PROJECT-ID",
      "registryId" : "ENTER-YOUR-REGISTRY-ID",
      "deviceId" : "ENTER-YOUR-DEVICE-ID",
      "cloudRegion" : "us-central1",
      "privateKeyFile" : "rsa_private_pkcs8",
      "algorithm" : "RS256",
      "mqttBridgeHostname" : "mqtt.googleapis.com",
      "mqttBridgePort" : 443
    }
  } ]
}