@startuml
participant "lora:LoRaApp" as lora
participant "_ttn:Cubecell" as ttn
participant "_sensors:SensorDataFeed" as sensors
participant "_workerThread:cubecellWorker" as worker
actor "Heltec HTCC-AM02" as heltec

lora -> lora : get AppEui, DevEui, AppKey from .ini

create ttn
lora -> ttn : new

create worker
ttn -> worker

lora -> ttn : initOTAA()
ttn -> worker : transaction(APP_EUI)
worker -> heltec : AT+AppEui=//<AppEui>//
ttn -> worker : transaction(DEV_EUI)
worker -> heltec : AT+DevEui=//<DevEui>//
ttn -> worker : transaction(APP_KEY)
worker -> heltec : AT+AppKey=//<AppKey>//

lora -> ttn : joinOTAA()
ttn -> worker : transaction(JOIN)
worker -> heltec : AT+JOIN=1
ttn --> lora : joined
lora -> lora : start timer

loop
opt valeurs capteurs mises à jour sur broker MQTT
sensors ->> lora : dataReady
lora -> sensors : get JSON object
lora -> lora : _makePayload()
end


lora ->> lora : timer timeout
activate lora
lora -> ttn : send payload
ttn -> worker : transaction(SEND_HEX)
worker -> heltec : AT+SendHex=//<payload>//

return 

end
@enduml